{
  "status_code": 200,
  "timestamp": "2022-11-25T16:15:42.380364Z",
  "message": null,
  "data": {
    "current_page": 1,
    "data": [
      {
        "product_id": 73048,
        "name": "12",
        "type": "single",
        "enable_stock": 1,
        "product_image": null,
        "id": 74039,
        "variation": "DUMMY",
        "qty_available": "12312562.2048",
        "selling_price": "15.0000",
        "sub_sku": "1212",
        "short_name": "Pc(s)",
        "media": []
      },
      {
        "product_id": 77023,
        "name": "2.03",
        "type": "single",
        "enable_stock": 1,
        "product_image": null,
        "id": 81554,
        "variation": "DUMMY",
        "qty_available": "992.0000",
        "selling_price": "2.0500",
        "sub_sku": "77023",
        "short_name": "Pc(s)",
        "media": []
      },
      {
        "product_id": 77107,
        "name": "Backcover",
        "type": "single",
        "enable_stock": 1,
        "product_image": null,
        "id": 81641,
        "variation": "DUMMY",
        "qty_available": "6.0000",
        "selling_price": "950.0000",
        "sub_sku": "77107",
        "short_name": "Pc(s)",
        "media": []
      },
      {
        "product_id": 77005,
        "name": "Ball (Tenis)",
        "type": "single",
        "enable_stock": 1,
        "product_image": null,
        "id": 81536,
        "variation": "DUMMY",
        "qty_available": "0.0000",
        "selling_price": "120.0000",
        "sub_sku": "77005",
        "short_name": "Pc(s)",
        "media": []
      },
      {
        "product_id": 76977,
        "name": "Bat",
        "type": "single",
        "enable_stock": 1,
        "product_image": "",
        "id": 81508,
        "variation": "DUMMY",
        "qty_available": "693.0000",
        "selling_price": "110.0000",
        "sub_sku": "B1234586",
        "short_name": "Pc(s)",
        "media": []
      }
    ],
    "first_page_url": "http:\/\/127.0.0.1:8000\/api\/ims\/product\/list?page=1",
    "from": 1,
    "last_page": 134,
    "last_page_url": "http:\/\/127.0.0.1:8000\/api\/ims\/product\/list?page=134",
    "links": [
      {
        "url": null,
        "label": "&laquo; Previous",
        "active": false
      },
      {
        "url": "http:\/\/127.0.0.1:8000\/api\/ims\/product\/list?page=1",
        "label": "1",
        "active": true
      },
      {
        "url": "http:\/\/127.0.0.1:8000\/api\/ims\/product\/list?page=2",
        "label": "2",
        "active": false
      },
      {
        "url": "http:\/\/127.0.0.1:8000\/api\/ims\/product\/list?page=3",
        "label": "3",
        "active": false
      },
      {
        "url": "http:\/\/127.0.0.1:8000\/api\/ims\/product\/list?page=4",
        "label": "4",
        "active": false
      },
      {
        "url": "http:\/\/127.0.0.1:8000\/api\/ims\/product\/list?page=5",
        "label": "5",
        "active": false
      },
      {
        "url": "http:\/\/127.0.0.1:8000\/api\/ims\/product\/list?page=6",
        "label": "6",
        "active": false
      },
      {
        "url": "http:\/\/127.0.0.1:8000\/api\/ims\/product\/list?page=7",
        "label": "7",
        "active": false
      },
      {
        "url": "http:\/\/127.0.0.1:8000\/api\/ims\/product\/list?page=8",
        "label": "8",
        "active": false
      },
      {
        "url": "http:\/\/127.0.0.1:8000\/api\/ims\/product\/list?page=9",
        "label": "9",
        "active": false
      },
      {
        "url": "http:\/\/127.0.0.1:8000\/api\/ims\/product\/list?page=10",
        "label": "10",
        "active": false
      },
      {
        "url": null,
        "label": "...",
        "active": false
      },
      {
        "url": "http:\/\/127.0.0.1:8000\/api\/ims\/product\/list?page=133",
        "label": "133",
        "active": false
      },
      {
        "url": "http:\/\/127.0.0.1:8000\/api\/ims\/product\/list?page=134",
        "label": "134",
        "active": false
      },
      {
        "url": "http:\/\/127.0.0.1:8000\/api\/ims\/product\/list?page=2",
        "label": "Next &raquo;",
        "active": false
      }
    ],
    "next_page_url": "http:\/\/127.0.0.1:8000\/api\/ims\/product\/list?page=2",
    "path": "http:\/\/127.0.0.1:8000\/api\/ims\/product\/list",
    "per_page": 5,
    "prev_page_url": null,
    "to": 5,
    "total": 666
  },
  "error": null,
  "version": "8.0.1"
}